{
  "galleries": [
    {
      "id": "5d1dbd0ce7964312b95bf0f3",
      "owner": {
        "id": "5caee4538110a81710964211",
        "firstName": "Mostafa",
        "lastName": "HZ",
        "gender": "MALE"
      },
      "title": "Nature",
      "description": "The Earth Images",
      "tags": [
        "nature",
        "eatth"
      ],
      "status": "ACTIVE",
      "createdAt": "2019-07-04T08:47:08.142Z"
    },
    {
      "id": "5cd4806d150a492b3612c3f6",
      "owner": {
        "id": "5caee4538110a81710964211",
        "firstName": "Mostafa",
        "lastName": "HZ",
        "gender": "MALE"
      },
      "title": "Space",
      "description": "The Space Images",
      "tags": [
        "space",
        "sky"
      ],
      "status": "FINISHED",
      "createdAt": "2019-05-09T19:33:01.105Z"
    }
  ]
}
